<?xml version="1.0" encoding="UTF-8" standalone="no"?>
<!-- Created with Inkscape (http://www.inkscape.org/) -->

<svg
   xmlns:dc="http://purl.org/dc/elements/1.1/"
   xmlns:cc="http://creativecommons.org/ns#"
   xmlns:rdf="http://www.w3.org/1999/02/22-rdf-syntax-ns#"
   xmlns:svg="http://www.w3.org/2000/svg"
   xmlns="http://www.w3.org/2000/svg"
   xmlns:sodipodi="http://sodipodi.sourceforge.net/DTD/sodipodi-0.dtd"
   xmlns:inkscape="http://www.inkscape.org/namespaces/inkscape"
   version="1.0"
   width="1066.6666"
   height="1066.6666"
   id="svg5496"
   sodipodi:version="0.32"
   inkscape:version="0.92.1 r15371"
   sodipodi:docname="inkscape_single_glyph_bat_demo.svg"
   inkscape:output_extension="org.inkscape.output.svg.inkscape">
  <metadata
     id="metadata5594">
    <rdf:RDF>
      <cc:Work
         rdf:about="">
        <dc:format>image/svg+xml</dc:format>
        <dc:type
           rdf:resource="http://purl.org/dc/dcmitype/StillImage" />
        <dc:title />
      </cc:Work>
    </rdf:RDF>
  </metadata>
  <sodipodi:namedview
     inkscape:window-height="994"
     inkscape:window-width="1920"
     inkscape:pageshadow="2"
     inkscape:pageopacity="0.0"
     borderopacity="1.0"
     bordercolor="#666666"
     pagecolor="#ffffff"
     id="base"
     showgrid="true"
     showguides="true"
     inkscape:guide-bbox="true"
     inkscape:zoom="0.32102648"
     inkscape:cx="306.92138"
     inkscape:cy="-61.112604"
     inkscape:window-x="0"
     inkscape:window-y="26"
     inkscape:current-layer="svg5496"
     inkscape:window-maximized="1">
    <sodipodi:guide
       orientation="horizontal"
       position="526.28487,-30.543318"
       id="guide5596"
       inkscape:locked="false" />
    <inkscape:grid
       type="xygrid"
       id="grid3462"
       originx="0"
       originy="0"
       spacingx="1.0666667"
       spacingy="1.0666667" />
  </sodipodi:namedview>
  <defs
     id="defs5498">
    <inkscape:perspective
       sodipodi:type="inkscape:persp3d"
       inkscape:vp_x="0 : 533.33333 : 1"
       inkscape:vp_y="0 : 1066.6667 : 0"
       inkscape:vp_z="1066.6667 : 533.33333 : 1"
       inkscape:persp3d-origin="533.33333 : 355.55555 : 1"
       id="perspective3931" />
    <font
       horiz-adv-x="1024"
       id="font3933"
       inkscape:label="font 1"
       horiz-origin-x="0"
       horiz-origin-y="0"
       vert-origin-x="45"
       vert-origin-y="90"
       vert-adv-y="90">
      <font-face
         units-per-em="1024"
         id="font-face3935"
         font-family="Community Icons" />
      <missing-glyph
         d="M 462.92893,574.14215 574.14215,462.92893 537.07108,425.85785 425.85785,537.07108 z M 425.85785,462.92893 537.07108,574.14215 574.14215,537.07108 462.92893,425.85785 z"
         id="missing-glyph3937" />
      <glyph
         glyph-name="glyph 1"
         id="glyph3940"
         unicode="F"
         d="m 635.35153,542.02253 -75.3515,-61.46405 140,-145.52862 0,-230.34065 100,0 0,251.13801 c 0,13.14874 -5.3924,26.21553 -14.6485,35.51249 z m 64.6485,416.53595 0,-176.73837 -481.25,-386.75256 c -11.6606,-9.37935 -18.7587,-24.23427 -18.75,-39.24033 l 0,-200.91042 100,0 0,176.73838 481.25,386.75257 c 11.6606,9.37935 18.7586,24.23426 18.75,39.24032 l 0,200.91041 z m -100,-791.08477 c -4.9022,-0.01 -9.6516,-3.20517 -11.5265,-7.75525 -1.8748,-4.55008 -0.763,-10.18281 2.6984,-13.66996 l 150,-150.6829 c 2.3134,-2.3179 5.5607,-3.6666 8.8281,-3.6666 3.2674,0 6.5147,1.3487 8.8281,3.6666 l 150,150.6829 c 3.4613,3.48715 4.5732,9.11988 2.6983,13.66996 -1.8748,4.55008 -6.6243,7.74564 -11.5264,7.75525 z m -500,0 c -4.902201,-0.01 -9.651701,-3.20517 -11.526501,-7.75525 -1.8748,-4.55008 -0.763,-10.18281 2.6983,-13.66996 L 241.17193,-4.6344 c 2.3134,-2.3179 5.5607,-3.6666 8.8281,-3.6666 3.2673,0 6.5147,1.3487 8.8281,3.6666 l 150,150.6829 c 3.4613,3.48715 4.5732,9.11988 2.6983,13.66996 -1.8748,4.55008 -6.6243,7.74564 -11.5264,7.75525 z" />
    </font>
  </defs>
  <g
     id="layer1" />
  <path
     sodipodi:nodetypes="cccsssccccssscccsscccccccccsc"
     inkscape:r_cy="true"
     inkscape:r_cx="true"
     id="path1319"
     d="M 326.7448,750.59834 C 321.51923,715.1389 236.60572,637.43213 216.97589,641.29952 c -76.16169,11.49471 -26.8622,-20.4932 9.08916,-28.28962 0,0 36.19123,16.20738 44.84676,-7.0274 C 280.14127,581.20248 230.65133,459.04817 147.68482,415.11071 50.706119,363.7542 82.932779,390.32172 83.699142,334.74191 83.982471,314.2207 87.75278,296.28367 2.7713371,240.8531 29.699686,189.93003 45.076842,151.47039 0,94.576656 c 239.07196,17.763194 295.3148,63.985884 299.7776,56.750404 50.50937,-79.582401 34.6664,-23.52005 21.67621,14.08671 -4.16459,12.33335 39.98791,97.40221 87.2914,153.39482 65.12119,77.08151 75.35252,113.25888 84.24038,101.83475 6.48347,-8.33364 16.4927,-36.91668 13.10675,-46.02255 -7.62551,-20.50167 30.94408,-95.89411 60.09947,-95.48878 8.37963,-1.11869 45.54587,144.63819 45.54587,144.63819 0,0 137.80882,-2.82394 149.88502,0.50063 5.24247,20.48908 -23.07368,66.13833 -80.10354,83.87262 -11.77892,3.6624 -28.87504,18.34538 -34.64264,25.75884 -12.36605,15.8949 145.23543,92.65939 268.57499,104.61711 73.92365,-32.61876 73.44306,-23.32467 30.59931,12.48855 -7.60707,6.34995 98.80018,115.34772 120.61588,297.03007 -25.1487,-19.56544 -66.3449,-43.77718 -129.38548,21.57187 C 864.6887,912.64741 857.90521,905.59537 791.70291,927.19855 714.24486,856.09244 637.38895,792.14197 575.48642,796.3604 l -67.21331,4.57987 9.94454,47.9551 c -2.35479,67.28939 -22.62939,34.9474 -23.62946,-5.08764 -32.94557,-25.58119 -108.97744,-76.43687 -131.01462,-61.72807 -77.7193,51.87724 -75.58082,49.50223 -36.82877,-31.48132 z"
     style="fill:#000000;stroke-width:1.3188411;fill-opacity:1"
     inkscape:connector-curvature="0" />
</svg>
